R Training: Precision Diagnostics - 07-tidyr
…
Note: no quotes around column names

Practice

The billboard dataset records the billboard rank of songs (2000)

billboard

# A tibble: 317 × 79
   artist     track date.entered   wk1   wk2   wk3   wk4   wk5   wk6   wk7   wk8
   <chr>      <chr> <date>       <dbl> <dbl> <dbl> <dbl> <dbl> <dbl> <dbl> <dbl>
 1 2 Pac      Baby… 2000-02-26      87    82    72    77    87    94    99    NA
 2 2Ge+her    The … 2000-09-02      91    87    92    NA    NA    NA    NA    NA
 3 3 Doors D… Kryp… 2000-04-08      81    70    68    67    66    57    54    53
 4 3 Doors D… Loser 2000-10-21      76    76    72    69    67    65    55    59
 5 504 Boyz   Wobb… 2000-04-15      57    34    25    17    17    31    36    49
 6 98^0       Give… 2000-08-19      51    39    34    26    26    19     2     2
 7 A*Teens    Danc… 2000-07-08      97    97    96    95   100    NA    NA    NA
 8 Aaliyah    I Do… 2000-01-29      84    62    51    41    38    35    35    38
 9 Aaliyah    Try … 2000-03-18      59    53    38    28    21    18    16    14
10 Adams, Yo… Open… 2000-08-26      76    76    74    69    68    67    61    58
# ℹ 307 more rows
# ℹ 68 more variables: wk9 <dbl>, wk10 <dbl>, wk11 <dbl>, wk12 <dbl>,
#   wk13 <dbl>, wk14 <dbl>, wk15 <dbl>, wk16 <dbl>, wk17 <dbl>, wk18 <dbl>,
#   wk19 <dbl>, wk20 <dbl>, wk21 <dbl>, wk22 <dbl>, wk23 <dbl>, wk24 <dbl>,
#   wk25 <dbl>, wk26 <dbl>, wk27 <dbl>, wk28 <dbl>, wk29 <dbl>, wk30 <dbl>,
#   wk31 <dbl>, wk32 <dbl>, wk33 <dbl>, wk34 <dbl>, wk35 <dbl>, wk36 <dbl>,
#   wk37 <dbl>, wk38 <dbl>, wk39 <dbl>, wk40 <dbl>, wk41 <dbl>, wk42 <dbl>, …
…
df |>
  unite(new_col, first_col, second_col)

Practice

For this section and next, we’ll read in these data…

congress_terms <- read_csv('https://raw.githubusercontent.com/ShanEllis/datasets/master/congress-terms.csv')
congress_years <- read_csv('https://raw.githubusercontent.com/ShanEllis/datasets/master/congress_years.csv')

. . .

congress_terms

# A tibble: 18,635 × 13
   congress chamber bioguide firstname middlename lastname  suffix birthday  
      <dbl> <chr>   <chr>    <chr>     <chr>      <chr>     <chr>  <date>    
 1       80 house   M000112  Joseph    Jefferson  Mansfield <NA>   1861-02-09
 2       80 house   D000448  Robert    Lee        Doughton  <NA>   1863-11-07
 3       80 house   S000001  Adolph    Joachim    Sabath    <NA>   1866-04-04
 4       80 house   E000023  Charles   Aubrey     Eaton     <NA>   1868-03-29
 5       80 house   L000296  William   <NA>       Lewis     <NA>   1868-09-22
 6       80 house   G000017  James     A.         Gallagher <NA>   1869-01-16
 7       80 house   W000265  Richard   Joseph     Welch     <NA>   1869-02-13
 8       80 house   B000565  Sol       <NA>       Bloom     <NA>   1870-03-09
 9       80 house   H000943  Merlin    <NA>       Hull      <NA>   1870-12-18
10       80 house   G000169  Charles   Laceille   Gifford   <NA>   1871-03-15
# ℹ 18,625 more rows
# ℹ 5 more variables: state <chr>, party <chr>, incumbent <chr>,
#   termstart <date>, age <dbl>
…
flights connects to weather via origin (the location), and year, month, day and hour (the time).

Mutating Joins

mutating joins - add new variables to a data frame from matching observations in another

. . .

For simplicity, we’ll work with only a handful of columns…

flights |> 
  select(year:day, hour, tailnum, carrier) |> 
  left_join(airlines, by = "carrier")

# A tibble: 336,776 × 7
    year month   day  hour tailnum carrier name                    
   <int> <int> <int> <dbl> <chr>   <chr>   <chr>                   
 1  2013     1     1     5 N14228  UA      United Air Lines Inc.   
 2  2013     1     1     5 N24211  UA      United Air Lines Inc.   
 3  2013     1     1     5 N619AA  AA      American Airlines Inc.  
 4  2013     1     1     5 N804JB  B6      JetBlue Airways         
 5  2013     1     1     6 N668DN  DL      Delta Air Lines Inc.    
 6  2013     1     1     5 N39463  UA      United Air Lines Inc.   
 7  2013     1     1     6 N516JB  B6      JetBlue Airways         
 8  2013     1     1     6 N829AS  EV      ExpressJet Airlines Inc.
 9  2013     1     1     6 N593JB  B6      JetBlue Airways         
10  2013     1     1     6 N3ALAA  AA      American Airlines Inc.  
# ℹ 336,766 more rows
…
Image Source: https://r4ds.had.co.nz/relational-data.html

Practice

Above we read in some data, but to remind ourselves:

congress_terms

# A tibble: 18,635 × 13
   congress chamber bioguide firstname middlename lastname  suffix birthday  
      <dbl> <chr>   <chr>    <chr>     <chr>      <chr>     <chr>  <date>    
 1       80 house   M000112  Joseph    Jefferson  Mansfield <NA>   1861-02-09
 2       80 house   D000448  Robert    Lee        Doughton  <NA>   1863-11-07
 3       80 house   S000001  Adolph    Joachim    Sabath    <NA>   1866-04-04
 4       80 house   E000023  Charles   Aubrey     Eaton     <NA>   1868-03-29
 5       80 house   L000296  William   <NA>       Lewis     <NA>   1868-09-22
 6       80 house   G000017  James     A.         Gallagher <NA>   1869-01-16
 7       80 house   W000265  Richard   Joseph     Welch     <NA>   1869-02-13
 8       80 house   B000565  Sol       <NA>       Bloom     <NA>   1870-03-09
 9       80 house   H000943  Merlin    <NA>       Hull      <NA>   1870-12-18
10       80 house   G000169  Charles   Laceille   Gifford   <NA>   1871-03-15
# ℹ 18,625 more rows
# ℹ 5 more variables: state <chr>, party <chr>, incumbent <chr>,
#   termstart <date>, age <dbl>

#includes election years
congress_years

# A tibble: 116 × 2
   congress  year
      <dbl> <dbl>
 1        1  1790
 2        2  1792
 3        3  1794
 4        4  1796
 5        5  1798
 6        6  1800
 7        7  1802
 8        8  1804
 9        9  1806
10       10  1808
# ℹ 106 more rows
…
